{
    "equipamentos": [{
            "mac_dispositivo": "5C:CF:7F:D1:06:FB",
            "desc_ambiente": "Sala de estar",
            "sensores": [{
                "cod_sensor": "1",
                "tipo": "interruptor",
                "descricao": "Lâmpada Painel"
            }]
        }

    ]
} 